<?xml version="1.0" encoding="UTF-8" standalone="no"?>
<!-- Created with Inkscape (http://www.inkscape.org/) -->

<svg
   xmlns:dc="http://purl.org/dc/elements/1.1/"
   xmlns:cc="http://creativecommons.org/ns#"
   xmlns:rdf="http://www.w3.org/1999/02/22-rdf-syntax-ns#"
   xmlns:svg="http://www.w3.org/2000/svg"
   xmlns="http://www.w3.org/2000/svg"
   xmlns:sodipodi="http://sodipodi.sourceforge.net/DTD/sodipodi-0.dtd"
   xmlns:inkscape="http://www.inkscape.org/namespaces/inkscape"
   width="210mm"
   height="297mm"
   viewBox="0 0 210 297"
   version="1.1"
   id="svg1525"
   inkscape:version="0.92.4 (5da689c313, 2019-01-14)"
   sodipodi:docname="twitter.svg">
  <defs
     id="defs1519" />
  <sodipodi:namedview
     id="base"
     pagecolor="#ffffff"
     bordercolor="#666666"
     borderopacity="1.0"
     inkscape:pageopacity="0.0"
     inkscape:pageshadow="2"
     inkscape:zoom="1.979899"
     inkscape:cx="391.06803"
     inkscape:cy="431.2627"
     inkscape:document-units="mm"
     inkscape:current-layer="layer1"
     showgrid="false"
     inkscape:window-width="1920"
     inkscape:window-height="1016"
     inkscape:window-x="0"
     inkscape:window-y="27"
     inkscape:window-maximized="1" />
  <metadata
     id="metadata1522">
    <rdf:RDF>
      <cc:Work
         rdf:about="">
        <dc:format>image/svg+xml</dc:format>
        <dc:type
           rdf:resource="http://purl.org/dc/dcmitype/StillImage" />
        <dc:title></dc:title>
      </cc:Work>
    </rdf:RDF>
  </metadata>
  <g
     inkscape:label="Layer 1"
     inkscape:groupmode="layer"
     id="layer1">
    <rect
       style="fill:#1da1f2;fill-opacity:1;stroke:none;stroke-width:1.29292858;stroke-miterlimit:4;stroke-dasharray:none"
       id="rect1635"
       width="92.229614"
       height="25.754534"
       x="58.885193"
       y="164.39879"
       rx="4.183753"
       ry="6.0987649"
       inkscape:export-filename="/home/marc/twitter.png"
       inkscape:export-xdpi="550.79999"
       inkscape:export-ydpi="550.79999" />
    <text
       xml:space="preserve"
       style="font-style:normal;font-weight:normal;font-size:10.58333302px;line-height:1.25;font-family:slave;letter-spacing:0px;word-spacing:0px;fill:#000000;fill-opacity:1;stroke:none;stroke-width:0.26458332;-inkscape-font-specification:slave;font-stretch:normal;font-variant:normal;"
       x="58.680801"
       y="175.29166"
       id="text1535"
       inkscape:export-filename="/home/marc/twitter.png"
       inkscape:export-xdpi="550.79999"
       inkscape:export-ydpi="550.79999"><tspan
         sodipodi:role="line"
         id="tspan1533"
         x="58.680801"
         y="184.65543"
         style="stroke-width:0.26458332;-inkscape-font-specification:slave;font-family:slave;font-weight:normal;font-style:normal;font-stretch:normal;font-variant:normal;" /></text>
    <text
       xml:space="preserve"
       style="font-style:normal;font-weight:normal;font-size:2.10128212px;line-height:1.25;font-family:sans-serif;letter-spacing:0px;word-spacing:0px;fill:#000000;fill-opacity:1;stroke:none;stroke-width:0.05253205"
       x="82.941399"
       y="183.56326"
       id="text2526"
       inkscape:export-filename="/home/marc/twitter.png"
       inkscape:export-xdpi="550.79999"
       inkscape:export-ydpi="550.79999"><tspan
         sodipodi:role="line"
         id="tspan2524"
         x="82.941399"
         y="183.56326"
         style="font-size:2.11666656px;stroke-width:0.05253205"><tspan
   style="font-size:2.11666656px;fill:#ff0000;stroke-width:0.05253205"
   id="tspan2528">mirror</tspan>: https://0x8.ch/HackersCardgame5</tspan></text>
    <text
       xml:space="preserve"
       style="font-style:normal;font-weight:normal;font-size:5.05160618px;line-height:1.25;font-family:sans-serif;letter-spacing:0px;word-spacing:0px;fill:#ffffff;fill-opacity:1;stroke:none;stroke-width:0.12629016"
       x="68.760338"
       y="177.78996"
       id="text1539"
       inkscape:export-filename="/home/marc/twitter.png"
       inkscape:export-xdpi="550.79999"
       inkscape:export-ydpi="550.79999"><tspan
         sodipodi:role="line"
         id="tspan1537"
         x="68.760338"
         y="177.78996"
         style="font-style:normal;font-variant:normal;font-weight:normal;font-stretch:normal;font-family:slave;-inkscape-font-specification:slave;fill:#ffffff;stroke-width:0.12629016">HackersCardgame.ch</tspan></text>
    <text
       xml:space="preserve"
       style="font-style:normal;font-weight:normal;font-size:1.30110037px;line-height:1.25;font-family:sans-serif;letter-spacing:0px;word-spacing:0px;fill:#0000ff;fill-opacity:1;stroke:none;stroke-width:0.03252751"
       x="74.179665"
       y="169.68275"
       id="text1539-2"
       inkscape:export-filename="/home/marc/twitter.png"
       inkscape:export-xdpi="550.79999"
       inkscape:export-ydpi="550.79999"><tspan
         sodipodi:role="line"
         id="tspan1537-7"
         x="74.179665"
         y="169.68275"
         style="font-style:normal;font-variant:normal;font-weight:normal;font-stretch:normal;font-size:2.11666656px;font-family:sans-serif;-inkscape-font-specification:sans-serif;fill:#0000ff;stroke-width:0.03252751"><tspan
   style="font-size:2.11666656px;fill:#00ff00"
   id="tspan2551">SOURCE</tspan>: https://github.com/braindef/HackersCardgame5/</tspan></text>
    <text
       xml:space="preserve"
       style="font-style:normal;font-weight:normal;font-size:2.10128212px;line-height:1.25;font-family:sans-serif;letter-spacing:0px;word-spacing:0px;fill:#000000;fill-opacity:1;stroke:none;stroke-width:0.05253205"
       x="78.596443"
       y="185.97314"
       id="text2526-0"
       inkscape:export-filename="/home/marc/twitter.png"
       inkscape:export-xdpi="550.79999"
       inkscape:export-ydpi="550.79999"><tspan
         sodipodi:role="line"
         id="tspan2524-9"
         x="78.596443"
         y="185.97314"
         style="font-size:2.11666656px;stroke-width:0.05253205"><tspan
   style="font-size:2.11666656px;fill:#ff0000;stroke-width:0.05253205"
   id="tspan2528-3">mirror</tspan>: https://marclandolt.ch/HackersCardgame5</tspan></text>
  </g>
</svg>
